# A tibble: 66 x 2
   name                              value
   <chr>                             <chr>
 1 TimeBodyAccelerometerMean()-X     ""   
 2 TimeBodyAccelerometerMean()-Y     ""   
 3 TimeBodyAccelerometerMean()-Z     ""   
 4 TimeBodyAccelerometerStd()-X      ""   
 5 TimeBodyAccelerometerStd()-Y      ""   
 6 TimeBodyAccelerometerStd()-Z      ""   
 7 TimeGrgavityAccelerometerMean()-X ""   
 8 TimeGrgavityAccelerometerMean()-Y ""   
 9 TimeGrgavityAccelerometerMean()-Z ""   
10 TimeGrgavityAccelerometerStd()-X  ""   
# ... with 56 more rows
